^C:\USERS\USER1\DOCUMENTS\VISUAL STUDIO 2015\PROJECTS\M03\M03\SOURCE.CPP
C:\USERS\USER1\DOCUMENTS\VISUAL STUDIO 2015\PROJECTS\M03\M03\DEBUG\VC140.PDB
C:\USERS\USER1\DOCUMENTS\VISUAL STUDIO 2015\PROJECTS\M03\M03\DEBUG\VC140.IDB
C:\USERS\USER1\DOCUMENTS\VISUAL STUDIO 2015\PROJECTS\M03\M03\DEBUG\SOURCE.OBJ
